<?xml version="1.0" encoding="utf-8"?>
<!-- Generator: Adobe Illustrator 18.1.0, SVG Export Plug-In . SVG Version: 6.00 Build 0)  -->
<svg version="1.1" id="Layer_1" xmlns="http://www.w3.org/2000/svg" xmlns:xlink="http://www.w3.org/1999/xlink" x="0px" y="0px"
	 viewBox="39.6 173 531.7 320.4" enable-background="new 39.6 173 531.7 320.4" xml:space="preserve">
<path fill="#BCB7B6" d="M529.8,308.4c-3.6-6.9-7.8-13.6-12.3-20.1C477.8,231,408,189.6,320.9,184.9c-5.1-0.2-10.2-0.5-15.4-0.5
	s-10.3,0.1-15.4,0.5c-87.2,4.6-156.8,45.9-196.5,103.4c-4.5,6.6-8.6,13.3-12.3,20.1c-27,50.4-29.7,106.4-9.5,157.6
	c1,2.7,2.1,5.4,3.4,8c1.1,2.6,2.4,5.2,3.7,7.8h453.2c1.2-2.6,2.5-5.2,3.7-7.8c1.2-2.7,2.3-5.3,3.4-8
	C559.4,414.8,556.7,358.9,529.8,308.4z M492.9,308.4l-91.4,75.2c-20.8-19.2-50-32.5-83.8-35.1l2.4-126.8
	C395.2,226,456.4,260.2,492.9,308.4z M295.3,454.2l-68.8-56.5c17.2-14.7,40.5-24.8,67.2-27.1L295.3,454.2z M317.3,370.5
	c26.7,2.4,50,12.3,67.2,27.1l-68.8,56.5L317.3,370.5z M290.8,221.8l2.4,126.8c-33.8,2.6-63,15.7-83.8,35.1l-91.4-75.2
	C154.5,260.2,215.6,226,290.8,221.8z M91.8,466.1c-16.2-45.8-11.6-94.9,13.6-138.5l90.5,71.2c-14.9,20-21.3,43.6-17.8,67.3H91.8z
	 M196.6,466.1c-1.8-19.2,4-38,16.2-53.9l68.5,53.9H196.6z M329.6,466.1l68.5-53.9c12.2,15.9,18,34.8,16.2,53.9H329.6z M432.9,466.1
	c3.5-23.7-2.8-47.3-17.8-67.3l90.5-71.2c25.2,43.6,29.7,92.7,13.6,138.5H432.9z"/>
<g>
	<g>
		<path fill="#010101" stroke="#010101" stroke-width="1.1919" d="M90.6,327.1l-26-20.5c-28.9,54.2-31.9,114.2-10.2,169.3h21.5
			C58.7,426.7,63.4,373.9,90.6,327.1z"/>
		<path fill="#010101" stroke="#010101" stroke-width="1.1919" d="M535,475.9h21.5c21.7-55,18.8-115.1-10.2-169.3l-26,20.5
			C547.5,373.9,552.3,426.7,535,475.9z"/>
		<path fill="#010101" stroke="#010101" stroke-width="1.1919" d="M506.8,306.6l26.3-21.7c-42.7-61.5-117.6-106-211.2-110.9
			l-0.8,39.6C401.9,218.1,467.6,254.8,506.8,306.6z"/>
		<path fill="#010101" stroke="#010101" stroke-width="1.1919" d="M289.7,213.7l-0.8-39.6c-93.6,5-168.5,49.3-211.1,110.9l26.3,21.7
			C143.4,254.8,209.1,218.1,289.7,213.7z"/>
		<path fill="#010101" stroke="#010101" stroke-width="1.1919" d="M205.9,417.9l-18.2-14.4c-15.9,21.6-22.8,46.8-19,72.3h19.9
			C186.6,455.2,192.8,435.1,205.9,417.9z"/>
		<path fill="#010101" stroke="#010101" stroke-width="1.1919" d="M405.1,417.9c13.1,17.2,19.3,37.3,17.3,58h19.9
			c3.8-25.4-3.1-50.8-19-72.3L405.1,417.9z"/>
		<path fill="#010101" stroke="#010101" stroke-width="1.1919" d="M390.4,402.4l18.3-15c-22.3-20.7-53.7-34.8-90-37.7l-0.5,23.5
			C346.8,375.8,371.8,386.6,390.4,402.4z"/>
		<path fill="#010101" stroke="#010101" stroke-width="1.1919" d="M292.8,373.3l-0.5-23.5c-36.3,2.8-67.7,17-90,37.7l18.3,15
			C239.1,386.6,264.2,375.8,292.8,373.3z"/>
		<path fill="#7B8DA2" d="M205.9,417.9c-13.1,17.2-19.3,37.3-17.3,58h90.9L205.9,417.9z"/>
		<path fill="#647C36" d="M390.4,402.4c-18.4-15.8-43.5-26.6-72.1-29.1l-1.7,89.9L390.4,402.4z"/>
		<path fill="#464E27" d="M292.8,373.3c-28.6,2.5-53.7,13.2-72.1,29.1l73.8,60.7L292.8,373.3z"/>
		<path fill="#FDB62C" d="M422.4,475.9c2-20.6-4.2-40.8-17.3-58l-73.6,58H422.4z"/>
		<path fill="#010101" stroke="#010101" stroke-width="1.1919" d="M305.4,213.2c5.3,0,10.5,0.1,15.7,0.5l0.8-39.6
			c-5.4-0.3-11-0.5-16.5-0.5s-11.1,0.2-16.5,0.5l0.8,39.6C294.9,213.3,300.2,213.2,305.4,213.2z"/>
		<path fill="#010101" stroke="#010101" stroke-width="1.1919" d="M305.4,349.2c4.4,0,8.8,0.2,13.1,0.6l2.6-136.2
			c-5.2-0.3-10.5-0.5-15.7-0.5c-5.3,0-10.5,0.1-15.7,0.5l2.6,136.2C296.6,349.4,301,349.2,305.4,349.2z"/>
		<path fill="#010101" stroke="#010101" stroke-width="1.1919" d="M305.4,372.8c4.3,0,8.5,0.2,12.7,0.6l0.5-23.5
			c-4.3-0.3-8.7-0.6-13.1-0.6s-8.8,0.2-13.1,0.6l0.5,23.5C297,372.9,301.1,372.8,305.4,372.8z"/>
		<path fill="#010101" stroke="#010101" stroke-width="1.1919" d="M305.4,472.2l11-9l1.7-89.9c-4.2-0.3-8.4-0.6-12.7-0.6
			s-8.5,0.2-12.7,0.6l1.7,89.9L305.4,472.2z"/>
		<path fill="#010101" stroke="#010101" stroke-width="1.1919" d="M104.1,306.6l-26.3-21.7c-4.9,7-9.3,14.2-13.2,21.6l26,20.5
			C94.6,320.1,99.2,313.3,104.1,306.6z"/>
		<path fill="#010101" stroke="#010101" stroke-width="1.1919" d="M202.3,387.3l-98.2-80.7c-5,6.7-9.5,13.5-13.6,20.5l97.1,76.4
			C192,397.9,196.9,392.4,202.3,387.3z"/>
		<path fill="#010101" stroke="#010101" stroke-width="1.1919" d="M220.6,402.4l-18.3-15c-5.4,5.1-10.3,10.5-14.6,16.2l18.2,14.4
			C210.1,412.3,215.1,407.1,220.6,402.4z"/>
		<path fill="#010101" stroke="#010101" stroke-width="1.1919" d="M294.7,475.9l-0.2-12.7l-73.8-60.8c-5.5,4.7-10.5,10-14.7,15.5
			l73.6,58H294.7z"/>
		<polygon fill="#010101" stroke="#010101" stroke-width="1.1919" points="305.4,472.2 294.5,463.1 294.7,475.9 301,475.9 		"/>
		<path fill="#010101" stroke="#010101" stroke-width="1.1919" d="M520.4,327.1l26-20.5c-4-7.4-8.4-14.6-13.2-21.6l-26.3,21.7
			C511.8,313.3,516.3,320.1,520.4,327.1z"/>
		<path fill="#010101" stroke="#010101" stroke-width="1.1919" d="M423.2,403.5l97.1-76.6c-4.1-7-8.6-13.8-13.6-20.5l-98.2,80.7
			C414.1,392.4,419,397.9,423.2,403.5z"/>
		<path fill="#010101" stroke="#010101" stroke-width="1.1919" d="M405.1,417.9l18.2-14.4c-4.3-5.8-9.2-11.2-14.6-16.2l-18.3,15
			C395.9,407.1,400.8,412.3,405.1,417.9z"/>
		<path fill="#010101" stroke="#010101" stroke-width="1.1919" d="M390.4,402.4l-73.8,60.7l-0.2,12.7h15.2l73.6-58
			C400.8,412.3,395.9,407.1,390.4,402.4z"/>
		<polygon fill="#010101" stroke="#010101" stroke-width="1.1919" points="310,475.9 316.2,475.9 316.5,463.1 305.4,472.2 		"/>
		<polygon fill="#010101" stroke="#010101" stroke-width="1.1919" points="310,475.9 305.4,472.2 301,475.9 		"/>
		<path fill="#010101" stroke="#010101" stroke-width="1.1919" d="M531.7,484.5c-1.1,2.8-2.4,5.7-3.7,8.4h20.8
			c1.4-2.7,2.7-5.5,4-8.4c1.2-2.8,2.5-5.8,3.6-8.6h-21.5C534,478.7,532.8,481.7,531.7,484.5z"/>
		<path fill="#010101" stroke="#010101" stroke-width="1.1919" d="M79.3,484.5c-1.1-2.8-2.3-5.8-3.3-8.6H54.5
			c1.1,2.9,2.4,5.8,3.6,8.6c1.2,2.8,2.6,5.7,4,8.4h20.8C81.6,490.1,80.4,487.3,79.3,484.5z"/>
		<path fill="#010101" stroke="#010101" stroke-width="1.1919" d="M535,475.9h-92.7c-0.5,2.8-1,5.8-1.7,8.6
			c-0.7,2.8-1.5,5.7-2.5,8.4H528c1.2-2.7,2.5-5.5,3.7-8.4C532.8,481.7,534,478.7,535,475.9z"/>
		<path fill="#010101" stroke="#010101" stroke-width="1.1919" d="M170.4,484.5c-0.7-2.8-1.2-5.8-1.7-8.6H76c1,2.9,2.1,5.8,3.3,8.6
			c1.1,2.8,2.4,5.7,3.7,8.4h89.9C171.9,490.1,171.1,487.3,170.4,484.5z"/>
		<path fill="#010101" stroke="#010101" stroke-width="1.1919" d="M421,484.5c-0.6,2.8-1.4,5.7-2.3,8.4h19.3
			c0.9-2.7,1.7-5.5,2.5-8.4c0.7-2.8,1.2-5.8,1.7-8.6h-19.9C422,478.7,421.7,481.5,421,484.5z"/>
		<path fill="#010101" stroke="#010101" stroke-width="1.1919" d="M190,484.5c-0.6-2.9-1-5.8-1.4-8.6h-19.9c0.5,2.8,1,5.8,1.7,8.6
			c0.7,2.8,1.5,5.7,2.5,8.4h19.3C191.2,490.1,190.5,487.3,190,484.5z"/>
		<path fill="#010101" stroke="#010101" stroke-width="1.1919" d="M320.5,484.5l10.2,8.4h88.2c0.9-2.7,1.6-5.5,2.3-8.4
			c0.6-2.9,1-5.8,1.4-8.6h-90.9L320.5,484.5z"/>
		<path fill="#010101" stroke="#010101" stroke-width="1.1919" d="M290.5,484.5l-11-8.6h-90.9c0.2,2.8,0.7,5.8,1.4,8.6
			c0.6,2.8,1.4,5.7,2.3,8.4h88.2L290.5,484.5z"/>
		<polygon fill="#010101" stroke="#010101" stroke-width="1.1919" points="294.7,475.9 279.5,475.9 290.5,484.5 294.8,481 		"/>
		<polygon fill="#010101" stroke="#010101" stroke-width="1.1919" points="316,492.9 330.7,492.9 320.5,484.5 316,488 		"/>
		<polygon fill="#010101" stroke="#010101" stroke-width="1.1919" points="301,475.9 294.7,475.9 294.8,481 		"/>
		<polygon fill="#010101" stroke="#010101" stroke-width="1.1919" points="309.8,492.9 316,492.9 316,488 		"/>
		<polygon fill="#010101" stroke="#010101" stroke-width="1.1919" points="290.5,484.5 280.3,492.9 295,492.9 294.9,488 		"/>
		<polygon fill="#010101" stroke="#010101" stroke-width="1.1919" points="320.5,484.5 331.4,475.9 316.2,475.9 316.2,481 		"/>
		<polygon fill="#010101" stroke="#010101" stroke-width="1.1919" points="294.9,488 295,492.9 301.1,492.9 		"/>
		<polygon fill="#010101" stroke="#010101" stroke-width="1.1919" points="316.2,481 316.2,475.9 310,475.9 		"/>
		<polygon fill="#010101" stroke="#010101" stroke-width="1.1919" points="316,488 320.5,484.5 316.2,481 		"/>
		<polygon fill="#010101" stroke="#010101" stroke-width="1.1919" points="294.8,481 290.5,484.5 294.9,488 		"/>
		<polygon fill="#010101" stroke="#010101" stroke-width="1.1919" points="294.8,481 294.9,488 301.1,492.9 309.8,492.9 316,488 
			316.2,481 310,475.9 301,475.9 		"/>
	</g>
	<rect x="62.1" y="574.4" display="none" fill="#010101" width="486.8" height="7.8"/>
</g>
</svg>
