<?xml version="1.0" standalone="no"?>
<!DOCTYPE svg PUBLIC "-//W3C//DTD SVG 1.1//EN" "http://www.w3.org/Graphics/SVG/1.1/DTD/svg11.dtd">
<svg xmlns="http://www.w3.org/2000/svg">
<metadata>Generated by Fontastic.me</metadata>
<defs>
<font id="untitled-font-2" horiz-adv-x="512">
<font-face font-family="untitled-font-2" units-per-em="512" ascent="480" descent="-32"/>
<missing-glyph horiz-adv-x="512" />

<glyph unicode="&#97;" d="M245 469l20 0 0-206-20 0z m-125-57l125 0 0-20-125 0z m145 0l126 0 0-20-126 0z m0-71l126 0 0-20-126 0z m-146 0l126 0 0-20-126 0z m15-136l92 0 0-133-92 0z m-63 307l0-512 370 0 0 512z m49-43l270 0 0-206-270 0z m122-413l-123 0 0 164 123 0 0-164z m149 0l-123 0 0 164 123 0 0-164z m-107 149l91 0 0-133-91 0z"/>
<glyph unicode="&#98;" d="M1 31c0 150-1 299-1 449 1 0 2 1 3 1 10 2 19 5 29 7 1 0 2 0 4 0 22-2 45-4 68-6 23-2 46-4 69-6 21-1 43-3 64-5 20-2 39-3 59-5 19-2 38-4 58-5 17-2 34-3 51-5 19-1 39-3 58-5 14-1 28-2 42-3 1 0 2 0 3-1 2-3 3-6 3-9 0-29 0-57 0-85 0-52 0-104 0-156 1-36 1-71 1-106 0-3-1-6-3-9 0-1-2-2-3-2-14-2-28-3-42-5-14-2-28-3-42-5-15-2-29-3-43-5-16-2-32-4-47-6-15-1-29-3-43-5-14-1-28-3-43-5-14-1-28-3-42-5-14-1-28-3-42-5-15-1-29-3-43-5-14-1-28-3-43-5-15-1-31-3-47-5-2 0-5 0-7 1-6 1-12 3-17 5-1 0-2 0-4 1z m234 376c0-3 0-5 0-7 0-44 0-88 0-131 0-24 0-48 0-72 0-26 0-51 0-76 0-1 0-3 0-4 27 2 54 4 81 7 1 2 1 3 1 5 0 17-1 35-1 53 0 39 0 78 0 117 0 33-1 65-1 98 0 1 0 3 0 5-4 0-7 0-11 1-21 1-43 3-64 4-2 0-3 0-5 0z m-102 5c-1-102-1-202-2-304 22 2 44 4 65 6 1 2 1 123 0 128-1 0-1 1-3 1 0 3 0 6 0 8-2 1-3 1-4 2 0 0-1 1-1 2 0 6 0 13-1 19 0 7 3 12 5 18 2 0 4 0 5 1 0 38 0 76 0 115-21 1-42 3-64 4z m272-294c0 2 0 4 0 5 0 3 0 7 0 10 0 20 0 40-1 60 0 42 0 83-1 125 0 29 0 57 0 86 0 1-1 2-1 4-18 1-36 2-54 3 0-99 0-197 0-297 19 2 38 3 57 4z m-310-29c0 114 1 226 1 340-14 1-28 2-42 2-1-5-2-344-1-347 14 2 28 4 42 5z m351 33c0 2 0 4 0 5 0 20 0 40 0 60 0 26-1 51-1 76 0 26 0 53 0 79-1 20-1 41-1 61 0 1 0 3 0 4-4 0-7 0-11 0 0-96 0-191 1-287 4 1 8 1 12 2z"/>
<glyph unicode="&#99;" d="M145 0c-1 0-1 0-1 0 0 6-1 12-1 18 0 40 1 80 1 120 0 68 0 136 0 205 0 55 0 110 0 165 0 1 0 2 0 4 73-13 145-25 217-38 0-2 1-4 1-6 2 0 4-1 6-1 0-1 0-3 0-4 0-41 0-82 0-123 0-2 1-3 1-4 0-96 0-191 0-286-1-1-2-1-4-1 0-2 0-4 0-5-1-1-1-1-1-1-23-4-45-8-67-13-25-4-49-9-74-14-22-4-45-9-67-13-4-1-7-2-11-3z m30 141c0-35 0-71 0-107 57 10 113 19 170 28-1 31-1 62-1 93-57-5-113-9-169-14z m1 338c0-33 0-66 0-99 27-3 54-6 82-8 0 0 0 0 0 0 2 1 4 1 6 2 0 1 0 2 1 3 3-1 6-1 9-2 0-1 0-3 0-4 23-3 46-5 70-7 0 29 0 59 0 89-56 9-112 17-168 26z m82-211c5 0 10 0 14-4 24 0 48 1 72 1 0 29 0 58 0 86-55 5-109 10-164 14 0-34 0-67 0-102 25 1 50 1 75 2 1 1 2 2 3 3z m87-15c-6 1-163-2-166-2 0-32 0-64 0-96 56 4 111 8 166 12 0 29 0 58 0 86z"/>
<glyph unicode="&#100;" d="M512 80l-512 0 0 352 512 0z m-483 28l454 0 0 296-454 0z"/>
<glyph unicode="&#101;" d="M191 0c0 0-1 0-1 0-1 0-1 1-2 1-21 6-42 12-64 18-5 2-10 4-16 5-12 1-24 2-36 3-4 0-9 0-14 1 0 158 0 316 0 474 1 0 1 0 2 0 22 0 44 1 66 1 2 0 4 0 7 1 15 2 30 4 45 6 4 1 8 1 11 2 1 0 1 0 2 0 2-2 5-5 7-7 85 2 168 4 252 6 4-3 4-4 4-9 0-6 0-12 0-18 0-92 0-183-1-274 0-56 0-112 0-168 0-9 0-18 0-27-1-1-2-2-3-3 0-2-1-4-1-7-83 5-166 10-249 15-2-1-3-2-4-3 0-4 0-8 0-12-2-1-3-3-5-5z m87 46c48-2 97-5 145-7 0 148 1 296 1 444-48-1-96-3-144-4-1-144-2-288-2-433z m-97 436c-27-1-53-2-80-6-2-141-4-281-2-422 9-1 18-2 27-3 0 1 0 2 0 4-3 5-5 11-7 16 1 3 3 6 4 10 2-1 3-2 4-3-1-2-2-4-3-6 3-6 5-12 8-18 4-1 9-1 13-1 3 0 7 0 9-4 0 0 0 0 1 0 8 0 16 0 24 0 0 1 0 1 0 2 0 23 0 45 0 68 1 23 1 46 2 69 1 24 0 49 0 74 0 22 1 44-1 66 0 6 1 13 1 19 0 39 0 78 0 117 0 6 0 11 0 18z m21 0c-1-145-2-290-3-435 12 0 23-1 35-1 0 146 1 291 1 436-11 0-22 0-33 0z"/>
<glyph unicode="&#102;" d="M0 126c0 6 0 12 0 18 0 2 1 5 1 7 1 68 2 135 4 203 0 3 1 4 3 4 16 4 31 9 47 12 11 3 22 6 33 8 20 3 41 6 61 8 14 2 28 4 42 5 21 1 42 1 63 2 16 0 31 1 47 1 29-1 57-3 86-5 8 0 16-1 24-2 24-3 48-7 72-11 8-1 15-3 23-4 2-83 4-166 6-250-2 0-3 0-4 0-21-1-43-1-64-2-46-1-91-2-136-2-67 0-134 1-201 2-21 1-42 2-63 3-14 1-29 2-44 3z m274 235c-23 0-46 0-69 0-1-70-2-139-2-209 24 0 47-1 71-1 0 70 0 140 0 210z m111-209c0 70-1 139-2 208-22 1-44 2-66 3 0-70 0-141 0-211 23 0 45 0 68 0z m-223 1c0 68 1 137 1 206-20-3-38-5-57-8-2-66-3-132-5-198 21 0 40 0 61 0z m320-1c-1 66-2 131-3 197-18 2-36 4-54 7 0-69 0-136 1-204 19 0 37 0 56 0z m-415 1c1 65 2 129 3 193-14-3-28-7-42-10-1-61-2-122-3-183 14 0 28 0 42 0z"/>
<glyph unicode="&#103;" d="M398 70c-81 0-163 0-244 0-1 1-2 1-3 1-9 0-17 0-26 0-2 0-4 0-5 1-39 15-78 31-117 47-1 0-2 1-2 2 0 1-1 4 0 5 2 2 1 4 1 6 0 49 0 98 0 147-1 50 1 99-1 148-1 4-1 8-1 12 0 1 0 1 0 1 8-1 15-1 23-2 13-1 27-2 40-3 12-1 23-2 34-3 11-1 21-2 32-2 21 0 41 0 62 0 64 0 128 0 192 0 3 0 7 0 10 0 18 2 36 4 54 6 17 1 34 3 51 5 4 0 7 0 10 1 0-2 0-2 0-3 1-75 1-150 2-224 0-29 0-57 0-86 0-1 1-2 1-3 1-2 1-4 1-6 0-1-2-1-2-2-32-13-63-26-94-40-6-2-12-5-18-8z m-236 53c64 0 128-1 192-1 0 64 0 127 0 191-64 0-128 0-192 0 0-64 0-127 0-190z m-52 10c0 61 0 122-1 183-21 4-41 8-62 11 0-1 0-2 0-2 0-36 0-71 0-107 0-20 0-40 1-61 0-1 0-2 2-3 13-4 27-9 40-14 7-3 13-5 20-7z m298 0c2 1 3 1 4 2 16 6 33 12 49 17 2 1 3 2 3 4 0 56 0 113 0 169 0 1 0 2 0 3-1 0-2 0-2 0-18-4-35-7-53-11-1 0-2-1-2-3 1-52 1-105 1-157 0-8 0-15 0-24z m-187 197c0 19 0 38 0 57-20 0-40 0-60 0 0-19 0-38 0-57 20 0 40 0 60 0z m133 1c0 19 0 37 0 56-20 0-40 0-60 0 0-19 0-38 0-56 20 0 40 0 60 0z m-126 0c6 0 11 0 17 0 2 0 4-1 6 2 0 0 0 0 1 0 6 1 12 1 18 1 0-2 0-3 0-4 6 0 11 0 16 0 1 19 1 38 2 57-20 0-40 0-60 0 0-19 0-37 0-56z m181 60c0-18 0-36 0-54 6 0 11 1 17 2 0 18 0 37 0 55-6-1-11-2-17-3z m-321-52c6-1 11-2 17-3 0 18 0 36 0 53 0 1-1 2-2 2 0 0-1 0-2 0-5 1-9 2-13 2 0-18 0-36 0-54z m-27 57c0-18 0-36 0-54 3 0 5-1 8-1 0 0 2 0 2 1 2 3 4 1 6 1 1-1 1-1 1-1 0 17 0 35 0 52-6 1-11 1-17 2z m374-2c0-17 0-33 0-50 1 0 1 1 1 1 3 1 5 1 6-1 1 0 1-1 2-1 2 1 4 1 7 2 0 17 0 34 0 52-6-1-11-2-16-3z m-383-50c0 18 0 35 0 53-4 0-8 0-12 1 0-3 0-6 0-9 0-13 0-26 0-39 0-1 1-3 2-3 3-1 6-2 10-3z m408 53c0-17 0-34 0-52 2 1 4 2 6 2 2 0 3 1 3 3 0 16 0 31 0 46 0 1 0 2 0 3-3-1-6-1-9-2z"/>
<glyph unicode="&#104;" d="M482 133c-29 101-59 201-88 302-2 7-2 14-2 22 0 14 2 28 2 42-8 5-16 9-24 13-1 0-3 0-5 0-12-3-24-6-37-8-99-20-198-39-297-58-3-1-4-2-8-2 0-13 0-25 0-38 0-15 1-31 1-46 0-101 1-202 1-303 0-3 0-5 0-7 8-6 16-12 24-19 33 12 67 22 101 34 1-3 2-4 2-6 6-18 12-36 17-53 1-2 1-4 1-6 1 0 2 0 3 0 11 4 21 8 31 12 93 31 185 62 278 93 2 1 4 2 7 3-2 8-4 17-7 25z m-422 281c0 1 1 3 1 4 93 19 185 38 278 57 0-3 0-4 0-8-92-19-185-38-278-57-1 2-1 3-1 4z m-4-32c1 0 2 0 3 0 7-25 15-50 23-76-8-27-16-53-25-80 0-3 0-4 0-4-1 52-1 108-1 160z m2-292c0 4-1 8-1 11 0 30 0 95 0 95l3 10c0 0 14 49 21 73 1 3 2 5 3 7 1 4 0 2 1 4 17-57 34-117 51-175-26-9-51-17-78-25z m37 282c81 19 161 36 243 55-5-86-10-170-15-255-44-12-87-24-130-36-6 5-13 11-13 11 0 0-12 1-19 2-22 74-44 148-66 223z m72-245c-1 4-3 10-5 15 6 0 15-1 15-1 0 0 5-5 9-8-2-1-15-5-19-6z m23-76c-1 2-1 3-2 6 5-1 10-1 14-1 1-1 2-1 4-1-4-1-11-3-16-4z m134 43c-31-10-99-33-99-33l-12 1c0 0-17 1-26 1 1 5 3 9 4 13 30 9 108 33 108 33 0 0 10 0 30-3 0-3 1-6 1-9-2-1-4-2-6-3z m17 6c-1 5-3 10-4 15-5 0-9 0-14 1-4 0-4-1-4 0 17 5 38 12 56 17 3 55 6 110 9 166 0 2 0 2 0 6 18-57 37-119 55-176-33-10-65-19-98-29z"/>
<glyph unicode="&#105;" d="M441 0l-370 0 0 401c0 1 0 30 25 58 31 35 85 53 160 53 75 0 129-18 160-53 25-28 25-57 25-58z m-341 29l312 0 0 372c0 4-4 82-156 82-154 0-156-81-156-82z m167 324l145 0 0-26-145 0z m-167 0l141 0 0-26-141 0z m0-110l141 0 0-25-141 0z m167 0l145 0 0-25-145 0z m-167-109l141 0 0-25-141 0z m167 0l146 0 0-25-146 0z m-26 349l26 0 0-454-26 0z"/>
<glyph unicode="&#106;" d="M120 471l272 0 0-35-272 0z m0-415l272 0 0-33-272 0z m-49 456l49 0 0-512-49 0z m321 0l49 0 0-512-49 0z m-250-76l49 0 0-380-49 0z m89 0l49 0 0-380-49 0z m92 0l49 0 0-380-49 0z m-203 64l5 0 0-10-5 0z m-53 0l4 0 0-10-4 0z m374 0l4 0 0-10-4 0z m-54 0l5 0 0-10-5 0z"/>
</font></defs></svg>
